%YAML 1.1
%TAG !u! tag:unity3d.com,2011:
--- !u!74 &7400000
AnimationClip:
  m_ObjectHideFlags: 0
  m_CorrespondingSourceObject: {fileID: 0}
  m_PrefabInstance: {fileID: 0}
  m_PrefabAsset: {fileID: 0}
  m_Name: SleighAnims
  serializedVersion: 6
  m_Legacy: 0
  m_Compressed: 0
  m_UseHighQualityCurve: 1
  m_RotationCurves: []
  m_CompressedRotationCurves: []
  m_EulerCurves: []
  m_PositionCurves: []
  m_ScaleCurves: []
  m_FloatCurves: []
  m_PPtrCurves:
  - curve:
    - time: 0
      value: {fileID: -2280906734973157728, guid: 3dc6c00aa35a09d4686f3c77e48e4ebf,
        type: 3}
    - time: 0.016666668
      value: {fileID: 553343469990302154, guid: 3dc6c00aa35a09d4686f3c77e48e4ebf,
        type: 3}
    - time: 0.033333335
      value: {fileID: -794379773976166808, guid: 3dc6c00aa35a09d4686f3c77e48e4ebf,
        type: 3}
    - time: 0.05
      value: {fileID: 1265844562706530464, guid: 3dc6c00aa35a09d4686f3c77e48e4ebf,
        type: 3}
    - time: 0.06666667
      value: {fileID: -6051987087921615269, guid: fcf3ad8705817fe40ba38fecb506e163,
        type: 3}
    - time: 0.083333336
      value: {fileID: 5984088327521821442, guid: fcf3ad8705817fe40ba38fecb506e163,
        type: 3}
    - time: 0.1
      value: {fileID: -7549112732989689583, guid: fcf3ad8705817fe40ba38fecb506e163,
        type: 3}
    - time: 0.11666667
      value: {fileID: 5058863902622998963, guid: fcf3ad8705817fe40ba38fecb506e163,
        type: 3}
    - time: 0.13333334
      value: {fileID: 8465658132897536402, guid: 1ab4f1503cd90aa43af8f84b8a3a8a18,
        type: 3}
    - time: 0.15
      value: {fileID: -3446551866331254503, guid: 1ab4f1503cd90aa43af8f84b8a3a8a18,
        type: 3}
    - time: 0.16666667
      value: {fileID: -1420930767018413128, guid: 1ab4f1503cd90aa43af8f84b8a3a8a18,
        type: 3}
    - time: 0.18333334
      value: {fileID: -83021598164464484, guid: 1ab4f1503cd90aa43af8f84b8a3a8a18,
        type: 3}
    - time: 0.2
      value: {fileID: 3875191957737717303, guid: 9f7907bd76841214c90fbad91cad3683,
        type: 3}
    - time: 0.21666667
      value: {fileID: -2306824558632498383, guid: 9f7907bd76841214c90fbad91cad3683,
        type: 3}
    - time: 0.23333333
      value: {fileID: 7365420340935620795, guid: 9f7907bd76841214c90fbad91cad3683,
        type: 3}
    - time: 0.25
      value: {fileID: -3264185196842012518, guid: 9f7907bd76841214c90fbad91cad3683,
        type: 3}
    - time: 0.26666668
      value: {fileID: -1445920915443106436, guid: 34f55c9b4d26f914fb1b54d202b7caab,
        type: 3}
    - time: 0.28333333
      value: {fileID: -8621910948340930607, guid: 34f55c9b4d26f914fb1b54d202b7caab,
        type: 3}
    - time: 0.3
      value: {fileID: 8069575853499448122, guid: 34f55c9b4d26f914fb1b54d202b7caab,
        type: 3}
    - time: 0.31666666
      value: {fileID: -7933269486877351223, guid: 34f55c9b4d26f914fb1b54d202b7caab,
        type: 3}
    - time: 0.33333334
      value: {fileID: -5931731398086205898, guid: dc44a00800098604d81f331656ad99a4,
        type: 3}
    - time: 0.35
      value: {fileID: -506955041222662265, guid: dc44a00800098604d81f331656ad99a4,
        type: 3}
    - time: 0.36666667
      value: {fileID: -3572945197755577465, guid: dc44a00800098604d81f331656ad99a4,
        type: 3}
    - time: 0.38333333
      value: {fileID: 1801962393572284127, guid: dc44a00800098604d81f331656ad99a4,
        type: 3}
    - time: 0.4
      value: {fileID: -956694543847608398, guid: 99fc34e5658e6054687c8a298b0dc1be,
        type: 3}
    - time: 0.41666666
      value: {fileID: 992508721013962787, guid: 99fc34e5658e6054687c8a298b0dc1be,
        type: 3}
    - time: 0.43333334
      value: {fileID: -3579067581990722797, guid: 99fc34e5658e6054687c8a298b0dc1be,
        type: 3}
    - time: 0.45
      value: {fileID: 2399870308997200962, guid: 99fc34e5658e6054687c8a298b0dc1be,
        type: 3}
    attribute: m_Sprite
    path: 
    classID: 212
    script: {fileID: 0}
  - curve:
    - time: 0
      value: {fileID: -2280906734973157728, guid: d7e660919c9f9ef4297da9b5f588b6ac,
        type: 3}
    - time: 0.016666668
      value: {fileID: 553343469990302154, guid: d7e660919c9f9ef4297da9b5f588b6ac,
        type: 3}
    - time: 0.033333335
      value: {fileID: -794379773976166808, guid: d7e660919c9f9ef4297da9b5f588b6ac,
        type: 3}
    - time: 0.05
      value: {fileID: 1265844562706530464, guid: d7e660919c9f9ef4297da9b5f588b6ac,
        type: 3}
    - time: 0.06666667
      value: {fileID: -6051987087921615269, guid: 2b343dac2098af9468d8cfb62ddb21db,
        type: 3}
    - time: 0.083333336
      value: {fileID: 5984088327521821442, guid: 2b343dac2098af9468d8cfb62ddb21db,
        type: 3}
    - time: 0.1
      value: {fileID: -7549112732989689583, guid: 2b343dac2098af9468d8cfb62ddb21db,
        type: 3}
    - time: 0.11666667
      value: {fileID: 5058863902622998963, guid: 2b343dac2098af9468d8cfb62ddb21db,
        type: 3}
    - time: 0.13333334
      value: {fileID: 8465658132897536402, guid: a24fa97aa36c55543b8390cb99c5dd93,
        type: 3}
    - time: 0.15
      value: {fileID: -3446551866331254503, guid: a24fa97aa36c55543b8390cb99c5dd93,
        type: 3}
    - time: 0.16666667
      value: {fileID: -1420930767018413128, guid: a24fa97aa36c55543b8390cb99c5dd93,
        type: 3}
    - time: 0.18333334
      value: {fileID: -83021598164464484, guid: a24fa97aa36c55543b8390cb99c5dd93,
        type: 3}
    - time: 0.2
      value: {fileID: 3875191957737717303, guid: dfef3d78ecda11a4e91aad96b57357c8,
        type: 3}
    - time: 0.21666667
      value: {fileID: -2306824558632498383, guid: dfef3d78ecda11a4e91aad96b57357c8,
        type: 3}
    - time: 0.23333333
      value: {fileID: 7365420340935620795, guid: dfef3d78ecda11a4e91aad96b57357c8,
        type: 3}
    - time: 0.25
      value: {fileID: -3264185196842012518, guid: dfef3d78ecda11a4e91aad96b57357c8,
        type: 3}
    - time: 0.26666668
      value: {fileID: -1445920915443106436, guid: 0922a58f47a7b3b41aec1f3ade5fe62a,
        type: 3}
    - time: 0.28333333
      value: {fileID: -8621910948340930607, guid: 0922a58f47a7b3b41aec1f3ade5fe62a,
        type: 3}
    - time: 0.3
      value: {fileID: 8069575853499448122, guid: 0922a58f47a7b3b41aec1f3ade5fe62a,
        type: 3}
    - time: 0.31666666
      value: {fileID: -7933269486877351223, guid: 0922a58f47a7b3b41aec1f3ade5fe62a,
        type: 3}
    - time: 0.33333334
      value: {fileID: -5931731398086205898, guid: c0fe5df42a1625f4ea899fe62521b6b2,
        type: 3}
    - time: 0.35
      value: {fileID: -506955041222662265, guid: c0fe5df42a1625f4ea899fe62521b6b2,
        type: 3}
    - time: 0.36666667
      value: {fileID: -3572945197755577465, guid: c0fe5df42a1625f4ea899fe62521b6b2,
        type: 3}
    - time: 0.38333333
      value: {fileID: 1801962393572284127, guid: c0fe5df42a1625f4ea899fe62521b6b2,
        type: 3}
    - time: 0.4
      value: {fileID: -956694543847608398, guid: fce63142af8c1464bb2ac4f7abb23420,
        type: 3}
    - time: 0.41666666
      value: {fileID: 992508721013962787, guid: fce63142af8c1464bb2ac4f7abb23420,
        type: 3}
    - time: 0.43333334
      value: {fileID: -3579067581990722797, guid: fce63142af8c1464bb2ac4f7abb23420,
        type: 3}
    - time: 0.45
      value: {fileID: 2399870308997200962, guid: fce63142af8c1464bb2ac4f7abb23420,
        type: 3}
    attribute: m_Sprite
    path: Reindeer
    classID: 212
    script: {fileID: 0}
  m_SampleRate: 60
  m_WrapMode: 0
  m_Bounds:
    m_Center: {x: 0, y: 0, z: 0}
    m_Extent: {x: 0, y: 0, z: 0}
  m_ClipBindingConstant:
    genericBindings:
    - serializedVersion: 2
      path: 0
      attribute: 0
      script: {fileID: 0}
      typeID: 212
      customType: 23
      isPPtrCurve: 1
    - serializedVersion: 2
      path: 4270799171
      attribute: 0
      script: {fileID: 0}
      typeID: 212
      customType: 23
      isPPtrCurve: 1
    pptrCurveMapping:
    - {fileID: -2280906734973157728, guid: 3dc6c00aa35a09d4686f3c77e48e4ebf, type: 3}
    - {fileID: 553343469990302154, guid: 3dc6c00aa35a09d4686f3c77e48e4ebf, type: 3}
    - {fileID: -794379773976166808, guid: 3dc6c00aa35a09d4686f3c77e48e4ebf, type: 3}
    - {fileID: 1265844562706530464, guid: 3dc6c00aa35a09d4686f3c77e48e4ebf, type: 3}
    - {fileID: -6051987087921615269, guid: fcf3ad8705817fe40ba38fecb506e163, type: 3}
    - {fileID: 5984088327521821442, guid: fcf3ad8705817fe40ba38fecb506e163, type: 3}
    - {fileID: -7549112732989689583, guid: fcf3ad8705817fe40ba38fecb506e163, type: 3}
    - {fileID: 5058863902622998963, guid: fcf3ad8705817fe40ba38fecb506e163, type: 3}
    - {fileID: 8465658132897536402, guid: 1ab4f1503cd90aa43af8f84b8a3a8a18, type: 3}
    - {fileID: -3446551866331254503, guid: 1ab4f1503cd90aa43af8f84b8a3a8a18, type: 3}
    - {fileID: -1420930767018413128, guid: 1ab4f1503cd90aa43af8f84b8a3a8a18, type: 3}
    - {fileID: -83021598164464484, guid: 1ab4f1503cd90aa43af8f84b8a3a8a18, type: 3}
    - {fileID: 3875191957737717303, guid: 9f7907bd76841214c90fbad91cad3683, type: 3}
    - {fileID: -2306824558632498383, guid: 9f7907bd76841214c90fbad91cad3683, type: 3}
    - {fileID: 7365420340935620795, guid: 9f7907bd76841214c90fbad91cad3683, type: 3}
    - {fileID: -3264185196842012518, guid: 9f7907bd76841214c90fbad91cad3683, type: 3}
    - {fileID: -1445920915443106436, guid: 34f55c9b4d26f914fb1b54d202b7caab, type: 3}
    - {fileID: -8621910948340930607, guid: 34f55c9b4d26f914fb1b54d202b7caab, type: 3}
    - {fileID: 8069575853499448122, guid: 34f55c9b4d26f914fb1b54d202b7caab, type: 3}
    - {fileID: -7933269486877351223, guid: 34f55c9b4d26f914fb1b54d202b7caab, type: 3}
    - {fileID: -5931731398086205898, guid: dc44a00800098604d81f331656ad99a4, type: 3}
    - {fileID: -506955041222662265, guid: dc44a00800098604d81f331656ad99a4, type: 3}
    - {fileID: -3572945197755577465, guid: dc44a00800098604d81f331656ad99a4, type: 3}
    - {fileID: 1801962393572284127, guid: dc44a00800098604d81f331656ad99a4, type: 3}
    - {fileID: -956694543847608398, guid: 99fc34e5658e6054687c8a298b0dc1be, type: 3}
    - {fileID: 992508721013962787, guid: 99fc34e5658e6054687c8a298b0dc1be, type: 3}
    - {fileID: -3579067581990722797, guid: 99fc34e5658e6054687c8a298b0dc1be, type: 3}
    - {fileID: 2399870308997200962, guid: 99fc34e5658e6054687c8a298b0dc1be, type: 3}
    - {fileID: -2280906734973157728, guid: d7e660919c9f9ef4297da9b5f588b6ac, type: 3}
    - {fileID: 553343469990302154, guid: d7e660919c9f9ef4297da9b5f588b6ac, type: 3}
    - {fileID: -794379773976166808, guid: d7e660919c9f9ef4297da9b5f588b6ac, type: 3}
    - {fileID: 1265844562706530464, guid: d7e660919c9f9ef4297da9b5f588b6ac, type: 3}
    - {fileID: -6051987087921615269, guid: 2b343dac2098af9468d8cfb62ddb21db, type: 3}
    - {fileID: 5984088327521821442, guid: 2b343dac2098af9468d8cfb62ddb21db, type: 3}
    - {fileID: -7549112732989689583, guid: 2b343dac2098af9468d8cfb62ddb21db, type: 3}
    - {fileID: 5058863902622998963, guid: 2b343dac2098af9468d8cfb62ddb21db, type: 3}
    - {fileID: 8465658132897536402, guid: a24fa97aa36c55543b8390cb99c5dd93, type: 3}
    - {fileID: -3446551866331254503, guid: a24fa97aa36c55543b8390cb99c5dd93, type: 3}
    - {fileID: -1420930767018413128, guid: a24fa97aa36c55543b8390cb99c5dd93, type: 3}
    - {fileID: -83021598164464484, guid: a24fa97aa36c55543b8390cb99c5dd93, type: 3}
    - {fileID: 3875191957737717303, guid: dfef3d78ecda11a4e91aad96b57357c8, type: 3}
    - {fileID: -2306824558632498383, guid: dfef3d78ecda11a4e91aad96b57357c8, type: 3}
    - {fileID: 7365420340935620795, guid: dfef3d78ecda11a4e91aad96b57357c8, type: 3}
    - {fileID: -3264185196842012518, guid: dfef3d78ecda11a4e91aad96b57357c8, type: 3}
    - {fileID: -1445920915443106436, guid: 0922a58f47a7b3b41aec1f3ade5fe62a, type: 3}
    - {fileID: -8621910948340930607, guid: 0922a58f47a7b3b41aec1f3ade5fe62a, type: 3}
    - {fileID: 8069575853499448122, guid: 0922a58f47a7b3b41aec1f3ade5fe62a, type: 3}
    - {fileID: -7933269486877351223, guid: 0922a58f47a7b3b41aec1f3ade5fe62a, type: 3}
    - {fileID: -5931731398086205898, guid: c0fe5df42a1625f4ea899fe62521b6b2, type: 3}
    - {fileID: -506955041222662265, guid: c0fe5df42a1625f4ea899fe62521b6b2, type: 3}
    - {fileID: -3572945197755577465, guid: c0fe5df42a1625f4ea899fe62521b6b2, type: 3}
    - {fileID: 1801962393572284127, guid: c0fe5df42a1625f4ea899fe62521b6b2, type: 3}
    - {fileID: -956694543847608398, guid: fce63142af8c1464bb2ac4f7abb23420, type: 3}
    - {fileID: 992508721013962787, guid: fce63142af8c1464bb2ac4f7abb23420, type: 3}
    - {fileID: -3579067581990722797, guid: fce63142af8c1464bb2ac4f7abb23420, type: 3}
    - {fileID: 2399870308997200962, guid: fce63142af8c1464bb2ac4f7abb23420, type: 3}
  m_AnimationClipSettings:
    serializedVersion: 2
    m_AdditiveReferencePoseClip: {fileID: 0}
    m_AdditiveReferencePoseTime: 0
    m_StartTime: 0
    m_StopTime: 0.46666667
    m_OrientationOffsetY: 0
    m_Level: 0
    m_CycleOffset: 0
    m_HasAdditiveReferencePose: 0
    m_LoopTime: 1
    m_LoopBlend: 0
    m_LoopBlendOrientation: 0
    m_LoopBlendPositionY: 0
    m_LoopBlendPositionXZ: 0
    m_KeepOriginalOrientation: 0
    m_KeepOriginalPositionY: 1
    m_KeepOriginalPositionXZ: 0
    m_HeightFromFeet: 0
    m_Mirror: 0
  m_EditorCurves: []
  m_EulerEditorCurves: []
  m_HasGenericRootTransform: 0
  m_HasMotionFloatCurves: 0
  m_Events: []
